\relax 
\providecommand\hyper@newdestlabel[2]{}
\citation{Duda:2000}
\citation{friedman}
\citation{Duda:2000}
\citation{friedman}
\citation{Duda:2000}
\citation{friedman}
\citation{Duda:2000}
\citation{friedman}
\citation{Duda:2000}
\citation{friedman}
\citation{Duda:2000}
\citation{friedman}
\@writefile{nav}{\headcommand {\slideentry {8}{0}{1}{49/54}{}{0}}}
\@writefile{nav}{\headcommand {\beamer@framepages {49}{54}}}
\@writefile{nav}{\headcommand {\slideentry {8}{0}{2}{55/57}{}{0}}}
\@writefile{nav}{\headcommand {\beamer@framepages {55}{57}}}
\@writefile{nav}{\headcommand {\slideentry {8}{0}{3}{58/59}{}{0}}}
\@writefile{nav}{\headcommand {\beamer@framepages {58}{59}}}
\@writefile{nav}{\headcommand {\slideentry {8}{0}{4}{60/63}{}{0}}}
\@writefile{nav}{\headcommand {\beamer@framepages {60}{63}}}
\@writefile{nav}{\headcommand {\slideentry {8}{0}{5}{64/65}{}{0}}}
\@writefile{nav}{\headcommand {\beamer@framepages {64}{65}}}
\@writefile{nav}{\headcommand {\slideentry {8}{0}{6}{66/70}{}{0}}}
\@writefile{nav}{\headcommand {\beamer@framepages {66}{70}}}
\@writefile{nav}{\headcommand {\slideentry {8}{0}{7}{71/71}{}{0}}}
\@writefile{nav}{\headcommand {\beamer@framepages {71}{71}}}
\@writefile{nav}{\headcommand {\slideentry {8}{0}{8}{72/72}{}{0}}}
\@writefile{nav}{\headcommand {\beamer@framepages {72}{72}}}
\@writefile{nav}{\headcommand {\slideentry {8}{0}{9}{73/73}{}{0}}}
\@writefile{nav}{\headcommand {\beamer@framepages {73}{73}}}
\@writefile{nav}{\headcommand {\slideentry {8}{0}{10}{74/74}{}{0}}}
\@writefile{nav}{\headcommand {\beamer@framepages {74}{74}}}
\@writefile{nav}{\headcommand {\slideentry {8}{0}{11}{75/75}{}{0}}}
\@writefile{nav}{\headcommand {\beamer@framepages {75}{75}}}
\@writefile{nav}{\headcommand {\slideentry {8}{0}{12}{76/76}{}{0}}}
\@writefile{nav}{\headcommand {\beamer@framepages {76}{76}}}
\@writefile{nav}{\headcommand {\slideentry {8}{0}{13}{77/78}{}{0}}}
\@writefile{nav}{\headcommand {\beamer@framepages {77}{78}}}
\@writefile{nav}{\headcommand {\slideentry {8}{0}{14}{79/79}{}{0}}}
\@writefile{nav}{\headcommand {\beamer@framepages {79}{79}}}
\@setckpt{agrupamentoHierarquico}{
\setcounter{page}{80}
\setcounter{equation}{0}
\setcounter{enumi}{0}
\setcounter{enumii}{0}
\setcounter{enumiii}{0}
\setcounter{enumiv}{0}
\setcounter{footnote}{0}
\setcounter{mpfootnote}{0}
\setcounter{beamerpauses}{1}
\setcounter{bookmark@seq@number}{10}
\setcounter{lecture}{0}
\setcounter{part}{0}
\setcounter{section}{8}
\setcounter{subsection}{0}
\setcounter{subsubsection}{0}
\setcounter{subsectionslide}{14}
\setcounter{framenumber}{27}
\setcounter{figure}{6}
\setcounter{table}{0}
\setcounter{parentequation}{0}
\setcounter{theorem}{0}
\setcounter{AM@survey}{0}
\setcounter{section@level}{0}
}
