\beamer@endinputifotherversion {3.36pt}
\select@language {brazil}
\beamer@sectionintoc {1}{Roteiro da apresenta\IeC {\c c}\IeC {\~a}o}{2}{0}{1}
\beamer@sectionintoc {2}{Introdu\IeC {\c c}\IeC {\~a}o}{4}{0}{2}
\beamer@sectionintoc {3}{Introdu\IeC {\c c}\IeC {\~a}o}{13}{0}{3}
\beamer@sectionintoc {4}{Introdu\IeC {\c c}\IeC {\~a}o}{16}{0}{4}
\beamer@sectionintoc {5}{Introdu\IeC {\c c}\IeC {\~a}o}{21}{0}{5}
\beamer@sectionintoc {6}{Introdu\IeC {\c c}\IeC {\~a}o}{22}{0}{6}
\beamer@subsectionintoc {7}{1}{questoes}{31}{0}{7}
\beamer@subsectionintoc {7}{2}{hipoteses}{35}{0}{7}
\beamer@sectionintoc {7}{problema}{27}{0}{7}
\beamer@sectionintoc {8}{aplicacoes}{49}{0}{8}
