\relax 
\providecommand\hyper@newdestlabel[2]{}
\providecommand\zref@newlabel[2]{}
\providecommand\HyperFirstAtBeginDocument{\AtBeginDocument}
\HyperFirstAtBeginDocument{\ifx\hyper@anchor\@undefined
\global\let\oldcontentsline\contentsline
\gdef\contentsline#1#2#3#4{\oldcontentsline{#1}{#2}{#3}}
\global\let\oldnewlabel\newlabel
\gdef\newlabel#1#2{\newlabelxx{#1}#2}
\gdef\newlabelxx#1#2#3#4#5#6{\oldnewlabel{#1}{{#2}{#3}}}
\AtEndDocument{\ifx\hyper@anchor\@undefined
\let\contentsline\oldcontentsline
\let\newlabel\oldnewlabel
\fi}
\fi}
\global\let\hyper@last\relax 
\gdef\HyperFirstAtBeginDocument#1{#1}
\providecommand\HyField@AuxAddToFields[1]{}
\providecommand\HyField@AuxAddToCoFields[2]{}
\catcode `"\active 
\providecommand\AtEndDvi@Check{}
\AtEndDvi@Check
\@writefile{toc}{\beamer@endinputifotherversion {3.36pt}}
\@writefile{nav}{\beamer@endinputifotherversion {3.36pt}}
\select@language{brazil}
\@writefile{toc}{\select@language{brazil}}
\@writefile{lof}{\select@language{brazil}}
\@writefile{lot}{\select@language{brazil}}
\@writefile{nav}{\headcommand {\slideentry {0}{0}{1}{1/1}{}{0}}}
\@writefile{nav}{\headcommand {\beamer@framepages {1}{1}}}
\@writefile{toc}{\beamer@sectionintoc {1}{Roteiro da apresenta\IeC {\c c}\IeC {\~a}o}{2}{0}{1}}
\@writefile{nav}{\headcommand {\sectionentry {1}{Roteiro da apresenta\IeC {\c c}\IeC {\~a}o}{2}{Roteiro da apresenta\IeC {\c c}\IeC {\~a}o}{0}}}
\@writefile{nav}{\headcommand {\beamer@sectionpages {1}{1}}}
\@writefile{nav}{\headcommand {\beamer@subsectionpages {1}{1}}}
\@writefile{nav}{\headcommand {\slideentry {1}{0}{1}{2/3}{}{0}}}
\@writefile{nav}{\headcommand {\beamer@framepages {2}{3}}}
\citation{lane2010let}
\citation{silva2007organizaccao}
\@writefile{toc}{\beamer@sectionintoc {2}{Introdu\IeC {\c c}\IeC {\~a}o}{4}{0}{2}}
\@writefile{nav}{\headcommand {\sectionentry {2}{Introdu\IeC {\c c}\IeC {\~a}o}{4}{Introdu\IeC {\c c}\IeC {\~a}o}{0}}}
\@writefile{nav}{\headcommand {\beamer@sectionpages {2}{3}}}
\@writefile{nav}{\headcommand {\beamer@subsectionpages {2}{3}}}
\citation{lane2010let}
\citation{silva2007organizaccao}
\citation{lane2010let}
\citation{silva2007organizaccao}
\citation{lane2010let}
\citation{silva2007organizaccao}
\citation{lane2010let}
\citation{silva2007organizaccao}
\citation{lane2010let}
\citation{silva2007organizaccao}
\@writefile{nav}{\headcommand {\slideentry {2}{0}{1}{4/9}{}{0}}}
\@writefile{nav}{\headcommand {\beamer@framepages {4}{9}}}
\newlabel{fig:quantidadeDeCurriculosPorNiveis}{{1}{10}{Introdução}{Doc-Start}{}}
\@writefile{snm}{\beamer@slide {fig:quantidadeDeCurriculosPorNiveis}{10}}
\@writefile{nav}{\headcommand {\slideentry {2}{0}{2}{10/12}{}{0}}}
\@writefile{nav}{\headcommand {\beamer@framepages {10}{12}}}
\@writefile{toc}{\beamer@sectionintoc {3}{Introdu\IeC {\c c}\IeC {\~a}o}{13}{0}{3}}
\@writefile{nav}{\headcommand {\sectionentry {3}{Introdu\IeC {\c c}\IeC {\~a}o}{13}{Introdu\IeC {\c c}\IeC {\~a}o}{0}}}
\@writefile{nav}{\headcommand {\beamer@sectionpages {4}{12}}}
\@writefile{nav}{\headcommand {\beamer@subsectionpages {4}{12}}}
\@writefile{nav}{\headcommand {\slideentry {3}{0}{1}{13/15}{}{0}}}
\@writefile{nav}{\headcommand {\beamer@framepages {13}{15}}}
\citation{bonifacio2002ontologias}
\citation{oliveira2004geralattes}
\citation{da2009semantic}
\citation{Mena-Chalco2009}
\@writefile{toc}{\beamer@sectionintoc {4}{Introdu\IeC {\c c}\IeC {\~a}o}{16}{0}{4}}
\@writefile{nav}{\headcommand {\sectionentry {4}{Introdu\IeC {\c c}\IeC {\~a}o}{16}{Introdu\IeC {\c c}\IeC {\~a}o}{0}}}
\@writefile{nav}{\headcommand {\beamer@sectionpages {13}{15}}}
\@writefile{nav}{\headcommand {\beamer@subsectionpages {13}{15}}}
\citation{bonifacio2002ontologias}
\citation{oliveira2004geralattes}
\citation{da2009semantic}
\citation{Mena-Chalco2009}
\citation{bonifacio2002ontologias}
\citation{oliveira2004geralattes}
\citation{da2009semantic}
\citation{Mena-Chalco2009}
\citation{bonifacio2002ontologias}
\citation{oliveira2004geralattes}
\citation{da2009semantic}
\citation{Mena-Chalco2009}
\citation{bonifacio2002ontologias}
\citation{oliveira2004geralattes}
\citation{da2009semantic}
\citation{Mena-Chalco2009}
\@writefile{nav}{\headcommand {\slideentry {4}{0}{1}{16/20}{}{0}}}
\@writefile{nav}{\headcommand {\beamer@framepages {16}{20}}}
\@writefile{toc}{\beamer@sectionintoc {5}{Introdu\IeC {\c c}\IeC {\~a}o}{21}{0}{5}}
\@writefile{nav}{\headcommand {\sectionentry {5}{Introdu\IeC {\c c}\IeC {\~a}o}{21}{Introdu\IeC {\c c}\IeC {\~a}o}{0}}}
\@writefile{nav}{\headcommand {\beamer@sectionpages {16}{20}}}
\@writefile{nav}{\headcommand {\beamer@subsectionpages {16}{20}}}
\newlabel{fig:agrupamentoHierarquico}{{2}{21}{Introdução}{Doc-Start}{}}
\@writefile{snm}{\beamer@slide {fig:agrupamentoHierarquico}{21}}
\@writefile{nav}{\headcommand {\slideentry {5}{0}{1}{21/21}{}{0}}}
\@writefile{nav}{\headcommand {\beamer@framepages {21}{21}}}
\citation{fernandez2012semantic}
\citation{ferraz2014use}
\citation{giordano2015uso}
\citation{nigro2016uso}
\@writefile{toc}{\beamer@sectionintoc {6}{Introdu\IeC {\c c}\IeC {\~a}o}{22}{0}{6}}
\@writefile{nav}{\headcommand {\sectionentry {6}{Introdu\IeC {\c c}\IeC {\~a}o}{22}{Introdu\IeC {\c c}\IeC {\~a}o}{0}}}
\@writefile{nav}{\headcommand {\beamer@sectionpages {21}{21}}}
\@writefile{nav}{\headcommand {\beamer@subsectionpages {21}{21}}}
\citation{fernandez2012semantic}
\citation{ferraz2014use}
\citation{giordano2015uso}
\citation{nigro2016uso}
\citation{fernandez2012semantic}
\citation{ferraz2014use}
\citation{giordano2015uso}
\citation{nigro2016uso}
\citation{fernandez2012semantic}
\citation{ferraz2014use}
\citation{giordano2015uso}
\citation{nigro2016uso}
\citation{fernandez2012semantic}
\citation{ferraz2014use}
\citation{giordano2015uso}
\citation{nigro2016uso}
\@writefile{nav}{\headcommand {\slideentry {6}{0}{1}{22/26}{}{0}}}
\@writefile{nav}{\headcommand {\beamer@framepages {22}{26}}}
\@input{problema.aux}
\@writefile{toc}{\beamer@sectionintoc {7}{problema}{27}{0}{7}}
\@writefile{nav}{\headcommand {\sectionentry {7}{problema}{27}{problema}{0}}}
\@writefile{nav}{\headcommand {\beamer@sectionpages {22}{26}}}
\@writefile{nav}{\headcommand {\beamer@subsectionpages {22}{26}}}
\@input{aplicacoes.aux}
\@writefile{toc}{\beamer@sectionintoc {8}{aplicacoes}{49}{0}{8}}
\@writefile{nav}{\headcommand {\sectionentry {8}{aplicacoes}{49}{aplicacoes}{0}}}
\@writefile{nav}{\headcommand {\beamer@sectionpages {27}{48}}}
\@writefile{nav}{\headcommand {\beamer@subsectionpages {35}{48}}}
\@writefile{nav}{\headcommand {\slideentry {8}{0}{5}{54/54}{}{0}}}
\@writefile{nav}{\headcommand {\beamer@framepages {54}{54}}}
\bibstyle{apalike}
\bibdata{refs-bib}
\bibcite{bonifacio2002ontologias}{\hyperlink {beamerbibbonifacio2002ontologias}{Bonifacio, 2002}}
\bibcite{da2009semantic}{\hyperlink {beamerbibda2009semantic}{da~Costa and Yamate, 2009}}
\bibcite{fernandez2012semantic}{\hyperlink {beamerbibfernandez2012semantic}{Fern{\'a}ndez-Breis et~al., 2012}}
\bibcite{ferraz2014use}{\hyperlink {beamerbibferraz2014use}{Ferraz et~al., 2014}}
\bibcite{giordano2015uso}{\hyperlink {beamerbibgiordano2015uso}{Giordano et~al., 2015}}
\bibcite{lane2010let}{\hyperlink {beamerbiblane2010let}{Lane, 2010}}
\bibcite{Mena-Chalco2009}{\hyperlink {beamerbibMena-Chalco2009}{Mena-Chalco and Junior, 2009}}
\bibcite{nigro2016uso}{\hyperlink {beamerbibnigro2016uso}{Nigro et~al., 2016}}
\bibcite{oliveira2004geralattes}{\hyperlink {beamerbiboliveira2004geralattes}{OLIVEIRA et~al., 2004}}
\bibcite{silva2007organizaccao}{\hyperlink {beamerbibsilva2007organizaccao}{SILVA, 2007}}
\@writefile{nav}{\headcommand {\beamer@partpages {1}{57}}}
\@writefile{nav}{\headcommand {\beamer@subsectionpages {49}{57}}}
\@writefile{nav}{\headcommand {\beamer@sectionpages {49}{57}}}
\@writefile{nav}{\headcommand {\beamer@documentpages {57}}}
\@writefile{nav}{\headcommand {\def \inserttotalframenumber {17}}}
\zref@newlabel{LastPage}{\default{8}\page{57}\abspage{57}}
