\relax 
\providecommand\hyper@newdestlabel[2]{}
\@writefile{toc}{\beamer@sectionintoc {10}{Planos para defesa}{80}{0}{10}}
\@writefile{nav}{\headcommand {\sectionentry {10}{Planos para defesa}{80}{Planos para defesa}{0}}}
\@writefile{nav}{\headcommand {\beamer@sectionpages {80}{79}}}
\@writefile{nav}{\headcommand {\beamer@subsectionpages {80}{79}}}
\@writefile{nav}{\headcommand {\slideentry {10}{0}{1}{80/80}{}{0}}}
\@writefile{nav}{\headcommand {\beamer@framepages {80}{80}}}
\@setckpt{planos}{
\setcounter{page}{81}
\setcounter{equation}{0}
\setcounter{enumi}{0}
\setcounter{enumii}{0}
\setcounter{enumiii}{0}
\setcounter{enumiv}{0}
\setcounter{footnote}{0}
\setcounter{mpfootnote}{0}
\setcounter{beamerpauses}{1}
\setcounter{bookmark@seq@number}{12}
\setcounter{lecture}{0}
\setcounter{part}{0}
\setcounter{section}{10}
\setcounter{subsection}{0}
\setcounter{subsubsection}{0}
\setcounter{subsectionslide}{1}
\setcounter{framenumber}{28}
\setcounter{figure}{6}
\setcounter{table}{0}
\setcounter{parentequation}{0}
\setcounter{theorem}{0}
\setcounter{AM@survey}{0}
\setcounter{section@level}{0}
}
