\relax 
\providecommand\hyper@newdestlabel[2]{}
\providecommand\zref@newlabel[2]{}
\@writefile{nav}{\headcommand {\slideentry {7}{0}{1}{27/30}{}{0}}}
\@writefile{nav}{\headcommand {\beamer@framepages {27}{30}}}
\@writefile{toc}{\beamer@subsectionintoc {7}{1}{questoes}{31}{0}{7}}
\@writefile{nav}{\headcommand {\beamer@subsectionentry {0}{7}{1}{31}{questoes}}\headcommand {\beamer@subsectionpages {27}{30}}}
\@writefile{nav}{\headcommand {\slideentry {7}{1}{1}{31/34}{questoes}{0}}}
\@writefile{nav}{\headcommand {\beamer@framepages {31}{34}}}
\@writefile{toc}{\beamer@subsectionintoc {7}{2}{hipoteses}{35}{0}{7}}
\@writefile{nav}{\headcommand {\beamer@subsectionentry {0}{7}{2}{35}{hipoteses}}\headcommand {\beamer@subsectionpages {31}{34}}}
\@writefile{nav}{\headcommand {\slideentry {7}{2}{1}{35/37}{hipoteses}{0}}}
\@writefile{nav}{\headcommand {\beamer@framepages {35}{37}}}
\@writefile{nav}{\headcommand {\slideentry {7}{2}{2}{38/40}{hipoteses}{0}}}
\@writefile{nav}{\headcommand {\beamer@framepages {38}{40}}}
\@writefile{nav}{\headcommand {\slideentry {7}{2}{3}{41/48}{hipoteses}{0}}}
\@writefile{nav}{\headcommand {\beamer@framepages {41}{48}}}
\@setckpt{problema}{
\setcounter{page}{49}
\setcounter{equation}{0}
\setcounter{enumi}{0}
\setcounter{enumii}{0}
\setcounter{enumiii}{0}
\setcounter{enumiv}{0}
\setcounter{footnote}{0}
\setcounter{mpfootnote}{0}
\setcounter{beamerpauses}{8}
\setcounter{bookmark@seq@number}{9}
\setcounter{lecture}{0}
\setcounter{part}{0}
\setcounter{section}{7}
\setcounter{subsection}{2}
\setcounter{subsubsection}{0}
\setcounter{subsectionslide}{3}
\setcounter{framenumber}{13}
\setcounter{figure}{2}
\setcounter{table}{0}
\setcounter{parentequation}{0}
\setcounter{theorem}{0}
\setcounter{AM@survey}{0}
\setcounter{section@level}{0}
}
