\relax 
\providecommand\hyper@newdestlabel[2]{}
\providecommand\HyperFirstAtBeginDocument{\AtBeginDocument}
\HyperFirstAtBeginDocument{\ifx\hyper@anchor\@undefined
\global\let\oldcontentsline\contentsline
\gdef\contentsline#1#2#3#4{\oldcontentsline{#1}{#2}{#3}}
\global\let\oldnewlabel\newlabel
\gdef\newlabel#1#2{\newlabelxx{#1}#2}
\gdef\newlabelxx#1#2#3#4#5#6{\oldnewlabel{#1}{{#2}{#3}}}
\AtEndDocument{\ifx\hyper@anchor\@undefined
\let\contentsline\oldcontentsline
\let\newlabel\oldnewlabel
\fi}
\fi}
\global\let\hyper@last\relax 
\gdef\HyperFirstAtBeginDocument#1{#1}
\providecommand\HyField@AuxAddToFields[1]{}
\providecommand\HyField@AuxAddToCoFields[2]{}
\catcode `"\active 
\@writefile{toc}{\beamer@endinputifotherversion {3.36pt}}
\@writefile{nav}{\beamer@endinputifotherversion {3.36pt}}
\select@language{brazil}
\@writefile{toc}{\select@language{brazil}}
\@writefile{lof}{\select@language{brazil}}
\@writefile{lot}{\select@language{brazil}}
\@writefile{nav}{\headcommand {\slideentry {0}{0}{1}{1/1}{}{0}}}
\@writefile{nav}{\headcommand {\beamer@framepages {1}{1}}}
\@writefile{toc}{\beamer@sectionintoc {1}{sumario}{2}{0}{1}}
\@writefile{nav}{\headcommand {\sectionentry {1}{sumario}{2}{sumario}{0}}}
\@writefile{nav}{\headcommand {\beamer@sectionpages {1}{1}}}
\@writefile{nav}{\headcommand {\beamer@subsectionpages {1}{1}}}
\@writefile{nav}{\headcommand {\slideentry {1}{0}{1}{2/2}{}{0}}}
\@writefile{nav}{\headcommand {\beamer@framepages {2}{2}}}
\citation{lane2010let}
\citation{silva2007organizaccao}
\@writefile{toc}{\beamer@sectionintoc {2}{Introdu\IeC {\c c}\IeC {\~a}o}{3}{0}{2}}
\@writefile{nav}{\headcommand {\sectionentry {2}{Introdu\IeC {\c c}\IeC {\~a}o}{3}{Introdu\IeC {\c c}\IeC {\~a}o}{0}}}
\@writefile{nav}{\headcommand {\beamer@sectionpages {2}{2}}}
\@writefile{nav}{\headcommand {\beamer@subsectionpages {2}{2}}}
\@writefile{toc}{\beamer@subsectionintoc {2}{1}{Contextualiza\IeC {\c c}\IeC {\~a}o do tema}{3}{0}{2}}
\@writefile{nav}{\headcommand {\beamer@subsectionentry {0}{2}{1}{3}{Contextualiza\IeC {\c c}\IeC {\~a}o do tema}}\headcommand {\beamer@subsectionpages {3}{2}}}
\citation{lane2010let}
\citation{silva2007organizaccao}
\citation{lane2010let}
\citation{silva2007organizaccao}
\citation{lane2010let}
\citation{silva2007organizaccao}
\citation{lane2010let}
\citation{silva2007organizaccao}
\citation{lane2010let}
\citation{silva2007organizaccao}
\@writefile{nav}{\headcommand {\slideentry {2}{1}{1}{3/8}{Contextualiza\IeC {\c c}\IeC {\~a}o do tema}{0}}}
\@writefile{nav}{\headcommand {\beamer@framepages {3}{8}}}
\@writefile{nav}{\headcommand {\slideentry {2}{1}{2}{9/9}{Contextualiza\IeC {\c c}\IeC {\~a}o do tema}{0}}}
\@writefile{nav}{\headcommand {\beamer@framepages {9}{9}}}
\@writefile{toc}{\beamer@sectionintoc {3}{Problema de pesquisa}{10}{0}{3}}
\@writefile{nav}{\headcommand {\sectionentry {3}{Problema de pesquisa}{10}{Problema de pesquisa}{0}}}
\@writefile{nav}{\headcommand {\beamer@sectionpages {3}{9}}}
\@writefile{nav}{\headcommand {\beamer@subsectionpages {3}{9}}}
\@writefile{toc}{\beamer@subsectionintoc {3}{1}{Problema problema}{10}{0}{3}}
\@writefile{nav}{\headcommand {\beamer@subsectionentry {0}{3}{1}{10}{Problema problema}}\headcommand {\beamer@subsectionpages {10}{9}}}
\@writefile{nav}{\headcommand {\slideentry {3}{1}{1}{10/13}{Problema problema}{0}}}
\@writefile{nav}{\headcommand {\beamer@framepages {10}{13}}}
\@writefile{nav}{\headcommand {\slideentry {3}{1}{2}{14/15}{Problema problema}{0}}}
\@writefile{nav}{\headcommand {\beamer@framepages {14}{15}}}
\@writefile{nav}{\headcommand {\slideentry {3}{1}{3}{16/18}{Problema problema}{0}}}
\@writefile{nav}{\headcommand {\beamer@framepages {16}{18}}}
\@writefile{toc}{\beamer@subsectionintoc {3}{2}{hip\IeC {\'o}teses de resolu\IeC {\c c}\IeC {\~a}o do problema}{19}{0}{3}}
\@writefile{nav}{\headcommand {\beamer@subsectionentry {0}{3}{2}{19}{hip\IeC {\'o}teses de resolu\IeC {\c c}\IeC {\~a}o do problema}}\headcommand {\beamer@subsectionpages {10}{18}}}
\@writefile{nav}{\headcommand {\slideentry {3}{2}{1}{19/21}{hip\IeC {\'o}teses de resolu\IeC {\c c}\IeC {\~a}o do problema}{0}}}
\@writefile{nav}{\headcommand {\beamer@framepages {19}{21}}}
\@writefile{toc}{\beamer@subsectionintoc {3}{3}{Objetivos geral e espec\IeC {\'\i }ficos}{22}{0}{3}}
\@writefile{nav}{\headcommand {\beamer@subsectionentry {0}{3}{3}{22}{Objetivos geral e espec\IeC {\'\i }ficos}}\headcommand {\beamer@subsectionpages {19}{21}}}
\@writefile{nav}{\headcommand {\slideentry {3}{3}{1}{22/23}{Objetivos geral e espec\IeC {\'\i }ficos}{0}}}
\@writefile{nav}{\headcommand {\beamer@framepages {22}{23}}}
\@writefile{nav}{\headcommand {\slideentry {3}{3}{2}{24/30}{Objetivos geral e espec\IeC {\'\i }ficos}{0}}}
\@writefile{nav}{\headcommand {\beamer@framepages {24}{30}}}
\@writefile{toc}{\beamer@sectionintoc {4}{Conceitos}{31}{0}{4}}
\@writefile{nav}{\headcommand {\sectionentry {4}{Conceitos}{31}{Conceitos}{0}}}
\@writefile{nav}{\headcommand {\beamer@sectionpages {10}{30}}}
\@writefile{nav}{\headcommand {\beamer@subsectionpages {22}{30}}}
\@writefile{nav}{\headcommand {\slideentry {4}{0}{1}{31/32}{}{0}}}
\@writefile{nav}{\headcommand {\beamer@framepages {31}{32}}}
\citation{genvlandwwww}
\@writefile{toc}{\beamer@subsubsectionintoc {4}{0}{1}{Web-Crawlers}{33}{0}{4}}
\@writefile{nav}{\headcommand {\beamer@subsubsectionentry {0}{4}{0}{1}{33}{Web-Crawlers}}}
\citation{genvlandwwww}
\citation{genvlandwwww}
\@writefile{nav}{\headcommand {\slideentry {4}{0}{2}{33/35}{}{0}}}
\@writefile{nav}{\headcommand {\beamer@framepages {33}{35}}}
\citation{santos2014mineraccao}
\citation{rocha2012ferramenta}
\citation{rodrigues2010ferramenta}
\citation{elishar2012organizational}
\citation{santos2010prototipo}
\citation{Mena-Chalco2009}
\citation{alves2016hierarchical}
\citation{santos2014mineraccao}
\citation{rocha2012ferramenta}
\citation{rodrigues2010ferramenta}
\citation{elishar2012organizational}
\citation{santos2010prototipo}
\citation{Mena-Chalco2009}
\citation{alves2016hierarchical}
\citation{santos2014mineraccao}
\citation{rocha2012ferramenta}
\citation{rodrigues2010ferramenta}
\citation{elishar2012organizational}
\citation{santos2010prototipo}
\citation{Mena-Chalco2009}
\citation{alves2016hierarchical}
\citation{santos2014mineraccao}
\citation{rocha2012ferramenta}
\citation{rodrigues2010ferramenta}
\citation{elishar2012organizational}
\citation{santos2010prototipo}
\citation{Mena-Chalco2009}
\citation{alves2016hierarchical}
\citation{santos2014mineraccao}
\citation{rocha2012ferramenta}
\citation{rodrigues2010ferramenta}
\citation{elishar2012organizational}
\citation{santos2010prototipo}
\citation{Mena-Chalco2009}
\citation{alves2016hierarchical}
\citation{santos2014mineraccao}
\citation{rocha2012ferramenta}
\citation{rodrigues2010ferramenta}
\citation{elishar2012organizational}
\citation{santos2010prototipo}
\citation{Mena-Chalco2009}
\citation{alves2016hierarchical}
\@writefile{nav}{\headcommand {\slideentry {4}{0}{3}{36/41}{}{0}}}
\@writefile{nav}{\headcommand {\beamer@framepages {36}{41}}}
\citation{bonifacio2002ontologias}
\citation{oliveira2004geralattes}
\citation{da2009semantic}
\citation{Mena-Chalco2009}
\citation{bonifacio2002ontologias}
\citation{oliveira2004geralattes}
\citation{da2009semantic}
\citation{Mena-Chalco2009}
\citation{bonifacio2002ontologias}
\citation{oliveira2004geralattes}
\citation{da2009semantic}
\citation{Mena-Chalco2009}
\citation{bonifacio2002ontologias}
\citation{oliveira2004geralattes}
\citation{da2009semantic}
\citation{Mena-Chalco2009}
\citation{bonifacio2002ontologias}
\citation{oliveira2004geralattes}
\citation{da2009semantic}
\citation{Mena-Chalco2009}
\@writefile{nav}{\headcommand {\slideentry {4}{0}{4}{42/46}{}{0}}}
\@writefile{nav}{\headcommand {\beamer@framepages {42}{46}}}
\@writefile{toc}{\beamer@subsectionintoc {4}{1}{Ferramenta de extra\IeC {\c c}\IeC {\~o}es de dados na plataforma Lattes}{47}{0}{4}}
\@writefile{nav}{\headcommand {\beamer@subsectionentry {0}{4}{1}{47}{Ferramenta de extra\IeC {\c c}\IeC {\~o}es de dados na plataforma Lattes}}\headcommand {\beamer@subsectionpages {31}{46}}}
\newlabel{fig:agrupamentoHierarquico}{{1}{47}{Ferramenta de extrações de dados na plataforma Lattes}{Doc-Start}{}}
\@writefile{snm}{\beamer@slide {fig:agrupamentoHierarquico}{47}}
\@writefile{nav}{\headcommand {\slideentry {4}{1}{1}{47/47}{Ferramenta de extra\IeC {\c c}\IeC {\~o}es de dados na plataforma Lattes}{0}}}
\@writefile{nav}{\headcommand {\beamer@framepages {47}{47}}}
\citation{fernandez2012semantic}
\citation{ferraz2014use}
\citation{giordano2015uso}
\citation{nigro2016uso}
\@writefile{toc}{\beamer@subsectionintoc {4}{2}{Principais trabalhos}{48}{0}{4}}
\@writefile{nav}{\headcommand {\beamer@subsectionentry {0}{4}{2}{48}{Principais trabalhos}}\headcommand {\beamer@subsectionpages {47}{47}}}
\citation{fernandez2012semantic}
\citation{ferraz2014use}
\citation{giordano2015uso}
\citation{nigro2016uso}
\citation{fernandez2012semantic}
\citation{ferraz2014use}
\citation{giordano2015uso}
\citation{nigro2016uso}
\citation{fernandez2012semantic}
\citation{ferraz2014use}
\citation{giordano2015uso}
\citation{nigro2016uso}
\citation{fernandez2012semantic}
\citation{ferraz2014use}
\citation{giordano2015uso}
\citation{nigro2016uso}
\@writefile{nav}{\headcommand {\slideentry {4}{2}{1}{48/52}{Principais trabalhos}{0}}}
\@writefile{nav}{\headcommand {\beamer@framepages {48}{52}}}
\citation{Duda:2000}
\citation{friedman}
\@writefile{toc}{\beamer@sectionintoc {5}{ Agrupamento Hier\IeC {\'a}rquico}{53}{0}{5}}
\@writefile{nav}{\headcommand {\sectionentry {5}{ Agrupamento Hier\IeC {\'a}rquico}{53}{ Agrupamento Hier\IeC {\'a}rquico}{0}}}
\@writefile{nav}{\headcommand {\beamer@sectionpages {31}{52}}}
\@writefile{nav}{\headcommand {\beamer@subsectionpages {48}{52}}}
\citation{Duda:2000}
\citation{friedman}
\citation{Duda:2000}
\citation{friedman}
\citation{Duda:2000}
\citation{friedman}
\@writefile{nav}{\headcommand {\slideentry {5}{0}{1}{53/56}{}{0}}}
\@writefile{nav}{\headcommand {\beamer@framepages {53}{56}}}
\@writefile{nav}{\headcommand {\slideentry {5}{0}{2}{57/61}{}{0}}}
\@writefile{nav}{\headcommand {\beamer@framepages {57}{61}}}
\@writefile{toc}{\beamer@subsectionintoc {5}{1}{Agrupamento Hier\IeC {\'a}rquico de curr\IeC {\'\i }culos Lattes}{62}{0}{5}}
\@writefile{nav}{\headcommand {\beamer@subsectionentry {0}{5}{1}{62}{Agrupamento Hier\IeC {\'a}rquico de curr\IeC {\'\i }culos Lattes}}\headcommand {\beamer@subsectionpages {53}{61}}}
\@writefile{nav}{\headcommand {\slideentry {5}{1}{1}{62/67}{Agrupamento Hier\IeC {\'a}rquico de curr\IeC {\'\i }culos Lattes}{0}}}
\@writefile{nav}{\headcommand {\beamer@framepages {62}{67}}}
\@writefile{nav}{\headcommand {\slideentry {5}{1}{2}{68/70}{Agrupamento Hier\IeC {\'a}rquico de curr\IeC {\'\i }culos Lattes}{0}}}
\@writefile{nav}{\headcommand {\beamer@framepages {68}{70}}}
\@writefile{nav}{\headcommand {\slideentry {5}{1}{3}{71/75}{Agrupamento Hier\IeC {\'a}rquico de curr\IeC {\'\i }culos Lattes}{0}}}
\@writefile{nav}{\headcommand {\beamer@framepages {71}{75}}}
\newlabel{fig:agrupamentoHierarquico}{{2}{76}{Agrupamento Hierárquico de currículos Lattes}{Doc-Start}{}}
\@writefile{snm}{\beamer@slide {fig:agrupamentoHierarquico}{76}}
\@writefile{nav}{\headcommand {\slideentry {5}{1}{4}{76/78}{Agrupamento Hier\IeC {\'a}rquico de curr\IeC {\'\i }culos Lattes}{0}}}
\@writefile{nav}{\headcommand {\beamer@framepages {76}{78}}}
\@writefile{nav}{\headcommand {\slideentry {5}{1}{5}{79/83}{Agrupamento Hier\IeC {\'a}rquico de curr\IeC {\'\i }culos Lattes}{0}}}
\@writefile{nav}{\headcommand {\beamer@framepages {79}{83}}}
\newlabel{tab:dataset}{{1}{84}{Agrupamento Hierárquico de currículos Lattes}{Doc-Start}{}}
\@writefile{snm}{\beamer@slide {tab:dataset}{84}}
\@writefile{nav}{\headcommand {\slideentry {5}{1}{6}{84/85}{Agrupamento Hier\IeC {\'a}rquico de curr\IeC {\'\i }culos Lattes}{0}}}
\@writefile{nav}{\headcommand {\beamer@framepages {84}{85}}}
\@writefile{nav}{\headcommand {\slideentry {5}{1}{7}{86/86}{Agrupamento Hier\IeC {\'a}rquico de curr\IeC {\'\i }culos Lattes}{0}}}
\@writefile{nav}{\headcommand {\beamer@framepages {86}{86}}}
\@writefile{nav}{\headcommand {\slideentry {5}{1}{8}{87/87}{Agrupamento Hier\IeC {\'a}rquico de curr\IeC {\'\i }culos Lattes}{0}}}
\@writefile{nav}{\headcommand {\beamer@framepages {87}{87}}}
\newlabel{fig:dendrogram}{{3}{88}{Agrupamento Hierárquico de currículos Lattes}{Doc-Start}{}}
\@writefile{snm}{\beamer@slide {fig:dendrogram}{88}}
\@writefile{nav}{\headcommand {\slideentry {5}{1}{9}{88/88}{Agrupamento Hier\IeC {\'a}rquico de curr\IeC {\'\i }culos Lattes}{0}}}
\@writefile{nav}{\headcommand {\beamer@framepages {88}{88}}}
\@writefile{toc}{\beamer@subsectionintoc {5}{2}{aplica\IeC {\c c}\IeC {\~o}es}{89}{0}{5}}
\@writefile{nav}{\headcommand {\beamer@subsectionentry {0}{5}{2}{89}{aplica\IeC {\c c}\IeC {\~o}es}}\headcommand {\beamer@subsectionpages {62}{88}}}
\@writefile{nav}{\headcommand {\slideentry {5}{2}{1}{89/89}{aplica\IeC {\c c}\IeC {\~o}es}{0}}}
\@writefile{nav}{\headcommand {\beamer@framepages {89}{89}}}
\newlabel{fig:agrupamentoHierarquico}{{4}{90}{aplicações}{Doc-Start}{}}
\@writefile{snm}{\beamer@slide {fig:agrupamentoHierarquico}{90}}
\@writefile{nav}{\headcommand {\slideentry {5}{2}{2}{90/90}{aplica\IeC {\c c}\IeC {\~o}es}{0}}}
\@writefile{nav}{\headcommand {\beamer@framepages {90}{90}}}
\newlabel{fig:agrupamentoHierarquico}{{5}{91}{aplicações}{Doc-Start}{}}
\@writefile{snm}{\beamer@slide {fig:agrupamentoHierarquico}{91}}
\@writefile{nav}{\headcommand {\slideentry {5}{2}{3}{91/91}{aplica\IeC {\c c}\IeC {\~o}es}{0}}}
\@writefile{nav}{\headcommand {\beamer@framepages {91}{91}}}
\newlabel{fig:dendrogram}{{6}{92}{aplicações}{Doc-Start}{}}
\@writefile{snm}{\beamer@slide {fig:dendrogram}{92}}
\@writefile{nav}{\headcommand {\slideentry {5}{2}{4}{92/92}{aplica\IeC {\c c}\IeC {\~o}es}{0}}}
\@writefile{nav}{\headcommand {\beamer@framepages {92}{92}}}
\@writefile{toc}{\beamer@sectionintoc {6}{Planos para defesa}{93}{0}{6}}
\@writefile{nav}{\headcommand {\sectionentry {6}{Planos para defesa}{93}{Planos para defesa}{0}}}
\@writefile{nav}{\headcommand {\beamer@sectionpages {53}{92}}}
\@writefile{nav}{\headcommand {\beamer@subsectionpages {89}{92}}}
\@writefile{nav}{\headcommand {\slideentry {6}{0}{1}{93/93}{}{0}}}
\@writefile{nav}{\headcommand {\beamer@framepages {93}{93}}}
\@writefile{toc}{\beamer@sectionintoc {7}{Planos para defesa}{94}{0}{7}}
\@writefile{nav}{\headcommand {\sectionentry {7}{Planos para defesa}{94}{Planos para defesa}{0}}}
\@writefile{nav}{\headcommand {\beamer@sectionpages {93}{93}}}
\@writefile{nav}{\headcommand {\beamer@subsectionpages {93}{93}}}
\newlabel{tab:cronograma}{{2}{94}{Planos para defesa}{Doc-Start}{}}
\@writefile{snm}{\beamer@slide {tab:cronograma}{94}}
\@writefile{nav}{\headcommand {\slideentry {7}{0}{1}{94/94}{}{0}}}
\@writefile{nav}{\headcommand {\beamer@framepages {94}{94}}}
\bibstyle{apalike}
\bibdata{refs-bib}
\bibcite{alves2016hierarchical}{\hyperlink {beamerbibalves2016hierarchical}{Alves et~al., 2016}}
\bibcite{bonifacio2002ontologias}{\hyperlink {beamerbibbonifacio2002ontologias}{Bonifacio, 2002}}
\bibcite{da2009semantic}{\hyperlink {beamerbibda2009semantic}{da~Costa and Yamate, 2009}}
\bibcite{Duda:2000}{\hyperlink {beamerbibDuda:2000}{Duda et~al., 2000}}
\bibcite{elishar2012organizational}{\hyperlink {beamerbibelishar2012organizational}{Elishar et~al., 2012}}
\bibcite{fernandez2012semantic}{\hyperlink {beamerbibfernandez2012semantic}{Fern{\'a}ndez-Breis et~al., 2012}}
\bibcite{ferraz2014use}{\hyperlink {beamerbibferraz2014use}{Ferraz et~al., 2014}}
\bibcite{friedman}{\hyperlink {beamerbibfriedman}{Friedman et~al., 2001}}
\bibcite{giordano2015uso}{\hyperlink {beamerbibgiordano2015uso}{Giordano et~al., 2015}}
\bibcite{lane2010let}{\hyperlink {beamerbiblane2010let}{Lane, 2010}}
\bibcite{Mena-Chalco2009}{\hyperlink {beamerbibMena-Chalco2009}{Mena-Chalco and Junior, 2009}}
\bibcite{nigro2016uso}{\hyperlink {beamerbibnigro2016uso}{Nigro et~al., 2016}}
\bibcite{genvlandwwww}{\hyperlink {beamerbibgenvlandwwww}{O.A, 1994}}
\bibcite{oliveira2004geralattes}{\hyperlink {beamerbiboliveira2004geralattes}{OLIVEIRA et~al., 2004}}
\bibcite{rocha2012ferramenta}{\hyperlink {beamerbibrocha2012ferramenta}{Rocha et~al., 2012}}
\bibcite{rodrigues2010ferramenta}{\hyperlink {beamerbibrodrigues2010ferramenta}{Rodrigues et~al., 2010}}
\bibcite{santos2014mineraccao}{\hyperlink {beamerbibsantos2014mineraccao}{Santos, 2014}}
\bibcite{santos2010prototipo}{\hyperlink {beamerbibsantos2010prototipo}{Santos, 2010}}
\bibcite{silva2007organizaccao}{\hyperlink {beamerbibsilva2007organizaccao}{SILVA, 2007}}
\@writefile{nav}{\headcommand {\beamer@partpages {1}{99}}}
\@writefile{nav}{\headcommand {\beamer@subsectionpages {94}{99}}}
\@writefile{nav}{\headcommand {\beamer@sectionpages {94}{99}}}
\@writefile{nav}{\headcommand {\beamer@documentpages {99}}}
\@writefile{nav}{\headcommand {\def \inserttotalframenumber {33}}}
